Suite/Test/Step Name,Browser,Description,Start time,End time,Duration,Status
kihondousakakunin,Chrome 72.0.3626.121,,2019-03-06 18:12:31,2019-03-06 18:16:24,3m - 52.772s,PASSED
,,,,,,
Test Cases/Robot/Reset Robot Search,Chrome 72.0.3626.121,,2019-03-06 18:12:32,2019-03-06 18:13:01,28.984s,PASSED
Start listener action : sampleBeforeTestCase,Chrome 72.0.3626.121,,2019-03-06 18:12:32,2019-03-06 18:12:42,10.452s,PASSED
"callTestCase(findTestCase(""Verification/Login with valid credentials""), [:], STOP_ON_FAILURE)",Chrome 72.0.3626.121,,2019-03-06 18:12:42,2019-03-06 18:12:45,2.366s,PASSED
delay(delay_time - 1),Chrome 72.0.3626.121,,2019-03-06 18:12:45,2019-03-06 18:12:48,3.024s,PASSED
"click(findTestObject(""Robot/status_pulldown""))",Chrome 72.0.3626.121,,2019-03-06 18:12:48,2019-03-06 18:12:48,0.155s,PASSED
delay(delay_time - 1),Chrome 72.0.3626.121,,2019-03-06 18:12:48,2019-03-06 18:12:51,3.009s,PASSED
"click(findTestObject(""Robot/status_option""))",Chrome 72.0.3626.121,,2019-03-06 18:12:51,2019-03-06 18:12:51,0.119s,PASSED
delay(delay_time - 1),Chrome 72.0.3626.121,,2019-03-06 18:12:51,2019-03-06 18:12:54,3.007s,PASSED
"click(findTestObject(""Robot/group_pulldown""))",Chrome 72.0.3626.121,,2019-03-06 18:12:54,2019-03-06 18:12:54,0.151s,PASSED
delay(delay_time - 1),Chrome 72.0.3626.121,,2019-03-06 18:12:54,2019-03-06 18:12:57,3.007s,PASSED
"click(findTestObject(""Robot/group_option""))",Chrome 72.0.3626.121,,2019-03-06 18:12:57,2019-03-06 18:12:57,0.110s,PASSED
delay(delay_time - 1),Chrome 72.0.3626.121,,2019-03-06 18:12:57,2019-03-06 18:13:00,3.009s,PASSED
"click(findTestObject(""Robot/robot_reset_button""))",Chrome 72.0.3626.121,,2019-03-06 18:13:00,2019-03-06 18:13:01,0.110s,PASSED
Start listener action : sampleAfterTestCase,Chrome 72.0.3626.121,,2019-03-06 18:13:01,2019-03-06 18:13:01,0.221s,PASSED
,,,,,,
Test Cases/Robot/Create Site Group,Chrome 72.0.3626.121,,2019-03-06 18:13:01,2019-03-06 18:13:23,22.550s,PASSED
Start listener action : sampleBeforeTestCase,Chrome 72.0.3626.121,,2019-03-06 18:13:01,2019-03-06 18:13:08,7.671s,PASSED
"callTestCase(findTestCase(""Verification/Login with valid credentials""), [:], STOP_ON_FAILURE)",Chrome 72.0.3626.121,,2019-03-06 18:13:09,2019-03-06 18:13:10,1.621s,PASSED
delay(delay_time),Chrome 72.0.3626.121,,2019-03-06 18:13:10,2019-03-06 18:13:14,4.009s,PASSED
"click(findTestObject(""Robot/group_submenu""))",Chrome 72.0.3626.121,,2019-03-06 18:13:14,2019-03-06 18:13:15,0.185s,PASSED
delay(delay_time),Chrome 72.0.3626.121,,2019-03-06 18:13:15,2019-03-06 18:13:19,4.004s,PASSED
"click(findTestObject(""Robot/add_site_modalbox""))",Chrome 72.0.3626.121,,2019-03-06 18:13:19,2019-03-06 18:13:19,0.099s,PASSED
delay(delay_time),Chrome 72.0.3626.121,,2019-03-06 18:13:19,2019-03-06 18:13:23,4.008s,PASSED
"setText(findTestObject(""Robot/site_name_textbox""), ""Italy Site"")",Chrome 72.0.3626.121,,2019-03-06 18:13:23,2019-03-06 18:13:23,0.397s,PASSED
"waitForElementClickable(findTestObject(""Robot/add_site_button""), global_waitingtime)",Chrome 72.0.3626.121,,2019-03-06 18:13:23,2019-03-06 18:13:23,0.103s,PASSED
Start listener action : sampleAfterTestCase,Chrome 72.0.3626.121,,2019-03-06 18:13:23,2019-03-06 18:13:23,0.118s,PASSED
,,,,,,
Test Cases/Verification/Logout,Chrome 72.0.3626.121,,2019-03-06 18:13:23,2019-03-06 18:13:41,17.364s,PASSED
Start listener action : sampleBeforeTestCase,Chrome 72.0.3626.121,,2019-03-06 18:13:23,2019-03-06 18:13:31,7.218s,PASSED
"callTestCase(findTestCase(""Verification/Login with valid credentials""), [:], STOP_ON_FAILURE)",Chrome 72.0.3626.121,,2019-03-06 18:13:31,2019-03-06 18:13:32,1.429s,PASSED
delay(delay_time),Chrome 72.0.3626.121,,2019-03-06 18:13:32,2019-03-06 18:13:36,4.006s,PASSED
"click(findTestObject(""Verification/profile_image""))",Chrome 72.0.3626.121,,2019-03-06 18:13:36,2019-03-06 18:13:36,0.139s,PASSED
delay(delay_time),Chrome 72.0.3626.121,,2019-03-06 18:13:36,2019-03-06 18:13:40,4.006s,PASSED
"click(findTestObject(""Verification/logout_button""))",Chrome 72.0.3626.121,,2019-03-06 18:13:40,2019-03-06 18:13:40,0.130s,PASSED
"verifyElementPresent(findTestObject(""Verification/txt_loginid""), global_waitingtime)",Chrome 72.0.3626.121,,2019-03-06 18:13:40,2019-03-06 18:13:41,0.037s,PASSED
"verifyElementPresent(findTestObject(""Verification/txt_password""), global_waitingtime)",Chrome 72.0.3626.121,,2019-03-06 18:13:41,2019-03-06 18:13:41,0.027s,PASSED
Start listener action : sampleAfterTestCase,Chrome 72.0.3626.121,,2019-03-06 18:13:41,2019-03-06 18:13:41,0.156s,PASSED
,,,,,,
Test Cases/Verification/Login with valid credentials,Chrome 72.0.3626.121,,2019-03-06 18:13:41,2019-03-06 18:13:50,8.967s,PASSED
Start listener action : sampleBeforeTestCase,Chrome 72.0.3626.121,,2019-03-06 18:13:41,2019-03-06 18:13:48,7.550s,PASSED
"setText(findTestObject(""Verification/txt_loginid""), findTestData(""Login"").getValue(1, 1))",Chrome 72.0.3626.121,,2019-03-06 18:13:48,2019-03-06 18:13:49,0.364s,PASSED
"setText(findTestObject(""Verification/txt_password""), findTestData(""Login"").getValue(2, 1))",Chrome 72.0.3626.121,,2019-03-06 18:13:49,2019-03-06 18:13:49,0.288s,PASSED
"click(findTestObject(""Verification/btn_login""))",Chrome 72.0.3626.121,,2019-03-06 18:13:49,2019-03-06 18:13:49,0.163s,PASSED
"verifyElementPresent(findTestObject(""Verification/lbl_homepage""), global_waitingtime)",Chrome 72.0.3626.121,,2019-03-06 18:13:49,2019-03-06 18:13:50,0.459s,PASSED
Start listener action : sampleAfterTestCase,Chrome 72.0.3626.121,,2019-03-06 18:13:50,2019-03-06 18:13:50,0.124s,PASSED
,,,,,,
Test Cases/Verification/Login with invalid ID and Password,Chrome 72.0.3626.121,,2019-03-06 18:13:50,2019-03-06 18:13:59,9.462s,PASSED
Start listener action : sampleBeforeTestCase,Chrome 72.0.3626.121,,2019-03-06 18:13:50,2019-03-06 18:13:58,8.192s,PASSED
"setText(findTestObject(""Verification/txt_loginid""), findTestData(""Login"").getValue(1, 2))",Chrome 72.0.3626.121,,2019-03-06 18:13:58,2019-03-06 18:13:59,0.389s,PASSED
"setText(findTestObject(""Verification/txt_password""), findTestData(""Login"").getValue(2, 2))",Chrome 72.0.3626.121,,2019-03-06 18:13:59,2019-03-06 18:13:59,0.214s,PASSED
"click(findTestObject(""Verification/btn_login""))",Chrome 72.0.3626.121,,2019-03-06 18:13:59,2019-03-06 18:13:59,0.229s,PASSED
"verifyElementPresent(findTestObject(""Verification/popup_login_fail""), global_waitingtime)",Chrome 72.0.3626.121,,2019-03-06 18:13:59,2019-03-06 18:13:59,0.046s,PASSED
Start listener action : sampleAfterTestCase,Chrome 72.0.3626.121,,2019-03-06 18:13:59,2019-03-06 18:13:59,0.122s,PASSED
,,,,,,
Test Cases/Menu/Notifications Click,Chrome 72.0.3626.121,,2019-03-06 18:13:59,2019-03-06 18:14:17,18.227s,PASSED
Start listener action : sampleBeforeTestCase,Chrome 72.0.3626.121,,2019-03-06 18:13:59,2019-03-06 18:14:07,7.693s,PASSED
"callTestCase(findTestCase(""Verification/Login with valid credentials""), [:], STOP_ON_FAILURE)",Chrome 72.0.3626.121,,2019-03-06 18:14:07,2019-03-06 18:14:09,1.814s,PASSED
delay(delay_time),Chrome 72.0.3626.121,,2019-03-06 18:14:09,2019-03-06 18:14:13,4.006s,PASSED
"click(findTestObject(""Menu/noti_button""))",Chrome 72.0.3626.121,,2019-03-06 18:14:13,2019-03-06 18:14:13,0.127s,PASSED
delay(delay_time),Chrome 72.0.3626.121,,2019-03-06 18:14:13,2019-03-06 18:14:17,4.005s,PASSED
"click(findTestObject(""Menu/noti_all_view""))",Chrome 72.0.3626.121,,2019-03-06 18:14:17,2019-03-06 18:14:17,0.099s,PASSED
"verifyElementPresent(findTestObject(""Menu/noti_header""), global_waitingtime)",Chrome 72.0.3626.121,,2019-03-06 18:14:17,2019-03-06 18:14:17,0.029s,PASSED
Start listener action : sampleAfterTestCase,Chrome 72.0.3626.121,,2019-03-06 18:14:17,2019-03-06 18:14:17,0.168s,PASSED
,,,,,,
Test Cases/Menu/Robot Menu Click,Chrome 72.0.3626.121,,2019-03-06 18:14:17,2019-03-06 18:14:32,14.275s,PASSED
Start listener action : sampleBeforeTestCase,Chrome 72.0.3626.121,,2019-03-06 18:14:17,2019-03-06 18:14:25,8.042s,PASSED
"callTestCase(findTestCase(""Verification/Login with valid credentials""), [:], STOP_ON_FAILURE)",Chrome 72.0.3626.121,,2019-03-06 18:14:26,2019-03-06 18:14:27,1.584s,PASSED
delay(delay_time),Chrome 72.0.3626.121,,2019-03-06 18:14:27,2019-03-06 18:14:31,4.007s,PASSED
"click(findTestObject(""Menu/robot_menu""))",Chrome 72.0.3626.121,,2019-03-06 18:14:31,2019-03-06 18:14:31,0.162s,PASSED
"verifyMatch(getAttribute(findTestObject(""Menu/submenu_first""), ""class""), ""sub-tab-item activeInnerTab"", false)",Chrome 72.0.3626.121,,2019-03-06 18:14:31,2019-03-06 18:14:31,0.097s,PASSED
"verifyMatch(getAttribute(findTestObject(""Menu/submenu_second""), ""class""), ""sub-tab-item"", false)",Chrome 72.0.3626.121,,2019-03-06 18:14:31,2019-03-06 18:14:31,0.050s,PASSED
Start listener action : sampleAfterTestCase,Chrome 72.0.3626.121,,2019-03-06 18:14:31,2019-03-06 18:14:32,0.188s,PASSED
,,,,,,
Test Cases/Menu/Report Menu Click,Chrome 72.0.3626.121,,2019-03-06 18:14:32,2019-03-06 18:14:46,14.794s,PASSED
Start listener action : sampleBeforeTestCase,Chrome 72.0.3626.121,,2019-03-06 18:14:32,2019-03-06 18:14:40,8.265s,PASSED
"callTestCase(findTestCase(""Verification/Login with valid credentials""), [:], STOP_ON_FAILURE)",Chrome 72.0.3626.121,,2019-03-06 18:14:40,2019-03-06 18:14:41,1.463s,PASSED
delay(delay_time),Chrome 72.0.3626.121,,2019-03-06 18:14:41,2019-03-06 18:14:45,4.005s,PASSED
"click(findTestObject(""Menu/report_menu""))",Chrome 72.0.3626.121,,2019-03-06 18:14:45,2019-03-06 18:14:46,0.369s,PASSED
"verifyMatch(getAttribute(findTestObject(""Menu/submenu_first""), ""class""), ""sub-tab-item activeInnerTab"", false)",Chrome 72.0.3626.121,,2019-03-06 18:14:46,2019-03-06 18:14:46,0.516s,PASSED
Start listener action : sampleAfterTestCase,Chrome 72.0.3626.121,,2019-03-06 18:14:46,2019-03-06 18:14:46,0.109s,PASSED
,,,,,,
Test Cases/Menu/Account Menu Click,Chrome 72.0.3626.121,,2019-03-06 18:14:46,2019-03-06 18:15:07,20.577s,PASSED
Start listener action : sampleBeforeTestCase,Chrome 72.0.3626.121,,2019-03-06 18:14:46,2019-03-06 18:14:55,8.900s,PASSED
"callTestCase(findTestCase(""Verification/Login with valid credentials""), [:], STOP_ON_FAILURE)",Chrome 72.0.3626.121,,2019-03-06 18:14:55,2019-03-06 18:14:58,2.283s,PASSED
delay(delay_time),Chrome 72.0.3626.121,,2019-03-06 18:14:58,2019-03-06 18:15:02,4.005s,PASSED
"click(findTestObject(""Menu/account_menu""))",Chrome 72.0.3626.121,,2019-03-06 18:15:02,2019-03-06 18:15:07,5.160s,PASSED
"verifyMatch(getAttribute(findTestObject(""Menu/submenu_first""), ""class""), ""sub-tab-item activeInnerTab"", false)",Chrome 72.0.3626.121,,2019-03-06 18:15:07,2019-03-06 18:15:07,0.045s,PASSED
Start listener action : sampleAfterTestCase,Chrome 72.0.3626.121,,2019-03-06 18:15:07,2019-03-06 18:15:07,0.117s,PASSED
,,,,,,
Test Cases/Menu/Documents Menu Click,Chrome 72.0.3626.121,,2019-03-06 18:15:07,2019-03-06 18:15:23,15.625s,PASSED
Start listener action : sampleBeforeTestCase,Chrome 72.0.3626.121,,2019-03-06 18:15:07,2019-03-06 18:15:15,8.163s,PASSED
"callTestCase(findTestCase(""Verification/Login with valid credentials""), [:], STOP_ON_FAILURE)",Chrome 72.0.3626.121,,2019-03-06 18:15:15,2019-03-06 18:15:17,1.675s,PASSED
delay(delay_time),Chrome 72.0.3626.121,,2019-03-06 18:15:17,2019-03-06 18:15:21,4.007s,PASSED
"click(findTestObject(""Menu/documents_menu""))",Chrome 72.0.3626.121,,2019-03-06 18:15:21,2019-03-06 18:15:22,1.446s,PASSED
"verifyMatch(getAttribute(findTestObject(""Menu/submenu_first""), ""class""), ""sub-tab-item activeInnerTab"", false)",Chrome 72.0.3626.121,,2019-03-06 18:15:22,2019-03-06 18:15:23,0.122s,PASSED
Start listener action : sampleAfterTestCase,Chrome 72.0.3626.121,,2019-03-06 18:15:23,2019-03-06 18:15:23,0.125s,PASSED
,,,,,,
Test Cases/Report/Search with valid credentials,Chrome 72.0.3626.121,,2019-03-06 18:15:23,2019-03-06 18:15:46,23.639s,PASSED
Start listener action : sampleBeforeTestCase,Chrome 72.0.3626.121,,2019-03-06 18:15:23,2019-03-06 18:15:31,8.026s,PASSED
"callTestCase(findTestCase(""Menu/Report Menu Click""), [:], STOP_ON_FAILURE)",Chrome 72.0.3626.121,,2019-03-06 18:15:31,2019-03-06 18:15:37,6.267s,PASSED
"height = getElementHeight(findTestObject(""Report/from_date""))",Chrome 72.0.3626.121,,2019-03-06 18:15:37,2019-03-06 18:15:37,0.071s,PASSED
"width = getElementWidth(findTestObject(""Report/from_date""))",Chrome 72.0.3626.121,,2019-03-06 18:15:37,2019-03-06 18:15:37,0.065s,PASSED
"clickOffset(findTestObject(""Report/from_date""), 140, 17)",Chrome 72.0.3626.121,,2019-03-06 18:15:37,2019-03-06 18:15:37,0.251s,PASSED
delay(delay_time),Chrome 72.0.3626.121,,2019-03-06 18:15:37,2019-03-06 18:15:41,4.006s,PASSED
"clickOffset(findTestObject(""Report/to_date""), 140, 17)",Chrome 72.0.3626.121,,2019-03-06 18:15:41,2019-03-06 18:15:42,0.270s,PASSED
delay(delay_time),Chrome 72.0.3626.121,,2019-03-06 18:15:42,2019-03-06 18:15:46,4.005s,PASSED
"click(findTestObject(""Report/button_report_search""))",Chrome 72.0.3626.121,,2019-03-06 18:15:46,2019-03-06 18:15:46,0.290s,PASSED
Start listener action : sampleAfterTestCase,Chrome 72.0.3626.121,,2019-03-06 18:15:46,2019-03-06 18:15:46,0.259s,PASSED
,,,,,,
Test Cases/Account/Create new user account,Chrome 72.0.3626.121,,2019-03-06 18:15:46,2019-03-06 18:16:02,15.405s,PASSED
Start listener action : sampleBeforeTestCase,Chrome 72.0.3626.121,,2019-03-06 18:15:46,2019-03-06 18:15:54,7.484s,PASSED
"callTestCase(findTestCase(""Menu/Account Menu Click""), [:], STOP_ON_FAILURE)",Chrome 72.0.3626.121,,2019-03-06 18:15:54,2019-03-06 18:16:00,6.037s,PASSED
"waitForElementClickable(findTestObject(""Register/user_add_popup""), global_waitingtime)",Chrome 72.0.3626.121,,2019-03-06 18:16:00,2019-03-06 18:16:00,0.051s,PASSED
"click(findTestObject(""Register/user_add_popup""))",Chrome 72.0.3626.121,,2019-03-06 18:16:00,2019-03-06 18:16:00,0.117s,PASSED
"setText(findTestObject(""Register/family_name""), ""william"")",Chrome 72.0.3626.121,,2019-03-06 18:16:00,2019-03-06 18:16:01,0.643s,PASSED
"setText(findTestObject(""Register/name""), ""smith"")",Chrome 72.0.3626.121,,2019-03-06 18:16:01,2019-03-06 18:16:01,0.311s,PASSED
"setText(findTestObject(""Register/email""), ""william@gmail.com"")",Chrome 72.0.3626.121,,2019-03-06 18:16:01,2019-03-06 18:16:02,0.459s,PASSED
Start listener action : sampleAfterTestCase,Chrome 72.0.3626.121,,2019-03-06 18:16:02,2019-03-06 18:16:02,0.176s,PASSED
,,,,,,
Test Cases/Account/Reset User Search,Chrome 72.0.3626.121,,2019-03-06 18:16:02,2019-03-06 18:16:24,22.150s,PASSED
Start listener action : sampleBeforeTestCase,Chrome 72.0.3626.121,,2019-03-06 18:16:02,2019-03-06 18:16:09,7.610s,PASSED
"callTestCase(findTestCase(""Menu/Account Menu Click""), [:], STOP_ON_FAILURE)",Chrome 72.0.3626.121,,2019-03-06 18:16:10,2019-03-06 18:16:15,5.708s,PASSED
"click(findTestObject(""Account/user_search_pulldown""))",Chrome 72.0.3626.121,,2019-03-06 18:16:15,2019-03-06 18:16:15,0.130s,PASSED
delay(delay_time),Chrome 72.0.3626.121,,2019-03-06 18:16:15,2019-03-06 18:16:19,4.006s,PASSED
"click(findTestObject(""Account/user_search_option""))",Chrome 72.0.3626.121,,2019-03-06 18:16:19,2019-03-06 18:16:20,0.102s,PASSED
delay(delay_time),Chrome 72.0.3626.121,,2019-03-06 18:16:20,2019-03-06 18:16:24,4.006s,PASSED
"click(findTestObject(""Account/user_search_reset_button""))",Chrome 72.0.3626.121,,2019-03-06 18:16:24,2019-03-06 18:16:24,0.101s,PASSED
Start listener action : sampleAfterTestCase,Chrome 72.0.3626.121,,2019-03-06 18:16:24,2019-03-06 18:16:24,0.206s,PASSED
