Suite/Test/Step Name,Browser,Description,Start time,End time,Duration,Status
kihondousakakunin,Chrome 72.0.3626.121,,2019-03-06 19:31:08,2019-03-06 19:32:44,1m - 35.168s,PASSED
,,,,,,
Test Cases/Robot/Reset Robot Search,Chrome 72.0.3626.121,,2019-03-06 19:31:10,2019-03-06 19:31:45,34.886s,PASSED
Start listener action : sampleBeforeTestCase,Chrome 72.0.3626.121,,2019-03-06 19:31:10,2019-03-06 19:31:23,12.876s,PASSED
"callTestCase(findTestCase(""Verification/Login with valid credentials""), [:], STOP_ON_FAILURE)",Chrome 72.0.3626.121,,2019-03-06 19:31:24,2019-03-06 19:31:27,2.704s,PASSED
delay(delay_time - 1),Chrome 72.0.3626.121,,2019-03-06 19:31:27,2019-03-06 19:31:30,3.023s,PASSED
"click(findTestObject(""Robot/status_pulldown""))",Chrome 72.0.3626.121,,2019-03-06 19:31:30,2019-03-06 19:31:30,0.142s,PASSED
delay(delay_time - 1),Chrome 72.0.3626.121,,2019-03-06 19:31:30,2019-03-06 19:31:33,3.008s,PASSED
"click(findTestObject(""Robot/status_option""))",Chrome 72.0.3626.121,,2019-03-06 19:31:33,2019-03-06 19:31:33,0.119s,PASSED
delay(delay_time - 1),Chrome 72.0.3626.121,,2019-03-06 19:31:33,2019-03-06 19:31:36,3.005s,PASSED
"click(findTestObject(""Robot/group_pulldown""))",Chrome 72.0.3626.121,,2019-03-06 19:31:36,2019-03-06 19:31:36,0.149s,PASSED
delay(delay_time - 1),Chrome 72.0.3626.121,,2019-03-06 19:31:36,2019-03-06 19:31:39,3.009s,PASSED
"click(findTestObject(""Robot/group_option""))",Chrome 72.0.3626.121,,2019-03-06 19:31:39,2019-03-06 19:31:40,0.121s,PASSED
delay(delay_time - 1),Chrome 72.0.3626.121,,2019-03-06 19:31:40,2019-03-06 19:31:43,3.006s,PASSED
"click(findTestObject(""Robot/robot_reset_button""))",Chrome 72.0.3626.121,,2019-03-06 19:31:43,2019-03-06 19:31:43,0.129s,PASSED
Start listener action : sampleAfterTestCase,Chrome 72.0.3626.121,,2019-03-06 19:31:43,2019-03-06 19:31:43,0.012s,PASSED
,,,,,,
Test Cases/Robot/Create Site Group,Chrome 72.0.3626.121,,2019-03-06 19:31:45,2019-03-06 19:32:11,25.684s,PASSED
Start listener action : sampleBeforeTestCase,Chrome 72.0.3626.121,,2019-03-06 19:31:45,2019-03-06 19:31:53,8.187s,PASSED
"callTestCase(findTestCase(""Verification/Login with valid credentials""), [:], STOP_ON_FAILURE)",Chrome 72.0.3626.121,,2019-03-06 19:31:53,2019-03-06 19:31:55,1.760s,PASSED
delay(delay_time),Chrome 72.0.3626.121,,2019-03-06 19:31:55,2019-03-06 19:31:59,4.010s,PASSED
"click(findTestObject(""Robot/group_submenu""))",Chrome 72.0.3626.121,,2019-03-06 19:31:59,2019-03-06 19:31:59,0.287s,PASSED
delay(delay_time),Chrome 72.0.3626.121,,2019-03-06 19:31:59,2019-03-06 19:32:03,4.012s,PASSED
"click(findTestObject(""Robot/add_site_modalbox""))",Chrome 72.0.3626.121,,2019-03-06 19:32:03,2019-03-06 19:32:04,0.133s,PASSED
delay(delay_time),Chrome 72.0.3626.121,,2019-03-06 19:32:04,2019-03-06 19:32:08,4.018s,PASSED
"setText(findTestObject(""Robot/site_name_textbox""), ""Italy Site"")",Chrome 72.0.3626.121,,2019-03-06 19:32:08,2019-03-06 19:32:08,0.558s,PASSED
"waitForElementClickable(findTestObject(""Robot/add_site_button""), global_waitingtime)",Chrome 72.0.3626.121,,2019-03-06 19:32:08,2019-03-06 19:32:08,0.219s,PASSED
Start listener action : sampleAfterTestCase,Chrome 72.0.3626.121,,2019-03-06 19:32:08,2019-03-06 19:32:08,0.004s,PASSED
,,,,,,
Test Cases/Verification/Logout,Chrome 72.0.3626.121,,2019-03-06 19:32:11,2019-03-06 19:32:32,21.321s,PASSED
Start listener action : sampleBeforeTestCase,Chrome 72.0.3626.121,,2019-03-06 19:32:11,2019-03-06 19:32:19,8.147s,PASSED
"callTestCase(findTestCase(""Verification/Login with valid credentials""), [:], STOP_ON_FAILURE)",Chrome 72.0.3626.121,,2019-03-06 19:32:19,2019-03-06 19:32:21,2.197s,PASSED
delay(delay_time),Chrome 72.0.3626.121,,2019-03-06 19:32:21,2019-03-06 19:32:25,4.007s,PASSED
"click(findTestObject(""Verification/profile_image""))",Chrome 72.0.3626.121,,2019-03-06 19:32:25,2019-03-06 19:32:26,0.146s,PASSED
delay(delay_time),Chrome 72.0.3626.121,,2019-03-06 19:32:26,2019-03-06 19:32:30,4.004s,PASSED
"click(findTestObject(""Verification/logout_button""))",Chrome 72.0.3626.121,,2019-03-06 19:32:30,2019-03-06 19:32:30,0.136s,PASSED
"verifyElementPresent(findTestObject(""Verification/txt_loginid""), global_waitingtime)",Chrome 72.0.3626.121,,2019-03-06 19:32:30,2019-03-06 19:32:30,0.061s,PASSED
"verifyElementPresent(findTestObject(""Verification/txt_password""), global_waitingtime)",Chrome 72.0.3626.121,,2019-03-06 19:32:30,2019-03-06 19:32:30,0.037s,PASSED
Start listener action : sampleAfterTestCase,Chrome 72.0.3626.121,,2019-03-06 19:32:30,2019-03-06 19:32:30,0.006s,PASSED
,,,,,,
Test Cases/Verification/Login with valid credentials,Chrome 72.0.3626.121,,2019-03-06 19:32:32,2019-03-06 19:32:43,11.484s,PASSED
Start listener action : sampleBeforeTestCase,Chrome 72.0.3626.121,,2019-03-06 19:32:32,2019-03-06 19:32:39,7.584s,PASSED
"setText(findTestObject(""Verification/txt_loginid""), findTestData(""Login"").getValue(1, 1))",Chrome 72.0.3626.121,,2019-03-06 19:32:39,2019-03-06 19:32:40,0.380s,PASSED
"setText(findTestObject(""Verification/txt_password""), findTestData(""Login"").getValue(2, 1))",Chrome 72.0.3626.121,,2019-03-06 19:32:40,2019-03-06 19:32:40,0.394s,PASSED
"click(findTestObject(""Verification/btn_login""))",Chrome 72.0.3626.121,,2019-03-06 19:32:40,2019-03-06 19:32:41,0.550s,PASSED
"verifyElementPresent(findTestObject(""Verification/lbl_homepage""), global_waitingtime)",Chrome 72.0.3626.121,,2019-03-06 19:32:41,2019-03-06 19:32:41,0.510s,PASSED
Start listener action : sampleAfterTestCase,Chrome 72.0.3626.121,,2019-03-06 19:32:41,2019-03-06 19:32:41,0.004s,PASSED
