Suite/Test/Step Name,Browser,Description,Start time,End time,Duration,Status
kihondousakakunin,Chrome 72.0.3626.121,,2019-03-06 16:54:21,2019-03-06 16:57:06,2m - 45.166s,FAILED
,,,,,,
Test Cases/Robot/Reset Robot Search,Chrome 72.0.3626.121,,2019-03-06 16:54:22,2019-03-06 16:54:56,34.063s,PASSED
Start listener action : sampleBeforeTestCase,Chrome 72.0.3626.121,,2019-03-06 16:54:22,2019-03-06 16:54:33,10.676s,PASSED
"callTestCase(findTestCase(""Verification/Login with valid credentials""), [:], STOP_ON_FAILURE)",Chrome 72.0.3626.121,,2019-03-06 16:54:33,2019-03-06 16:54:35,2.180s,PASSED
delay(delay_time - 1),Chrome 72.0.3626.121,,2019-03-06 16:54:35,2019-03-06 16:54:38,3.021s,PASSED
"click(findTestObject(""Robot/status_pulldown""))",Chrome 72.0.3626.121,,2019-03-06 16:54:38,2019-03-06 16:54:38,0.143s,PASSED
delay(delay_time - 1),Chrome 72.0.3626.121,,2019-03-06 16:54:38,2019-03-06 16:54:41,3.005s,PASSED
"click(findTestObject(""Robot/status_option""))",Chrome 72.0.3626.121,,2019-03-06 16:54:41,2019-03-06 16:54:42,0.133s,PASSED
delay(delay_time - 1),Chrome 72.0.3626.121,,2019-03-06 16:54:42,2019-03-06 16:54:45,3.005s,PASSED
"click(findTestObject(""Robot/group_pulldown""))",Chrome 72.0.3626.121,,2019-03-06 16:54:45,2019-03-06 16:54:45,0.142s,PASSED
delay(delay_time - 1),Chrome 72.0.3626.121,,2019-03-06 16:54:45,2019-03-06 16:54:48,3.008s,PASSED
"click(findTestObject(""Robot/group_option""))",Chrome 72.0.3626.121,,2019-03-06 16:54:48,2019-03-06 16:54:48,0.146s,PASSED
delay(delay_time - 1),Chrome 72.0.3626.121,,2019-03-06 16:54:48,2019-03-06 16:54:51,3.007s,PASSED
"click(findTestObject(""Robot/robot_reset_button""))",Chrome 72.0.3626.121,,2019-03-06 16:54:51,2019-03-06 16:54:56,5.136s,PASSED
Start listener action : sampleAfterTestCase,Chrome 72.0.3626.121,,2019-03-06 16:54:56,2019-03-06 16:54:56,0.169s,PASSED
,,,,,,
Test Cases/Robot/Create Site Group,Chrome 72.0.3626.121,,2019-03-06 16:54:56,2019-03-06 16:55:46,49.505s,FAILED
Start listener action : sampleBeforeTestCase,Chrome 72.0.3626.121,,2019-03-06 16:54:56,2019-03-06 16:55:04,7.357s,PASSED
"callTestCase(findTestCase(""Verification/Login with valid credentials""), [:], STOP_ON_FAILURE)",Chrome 72.0.3626.121,,2019-03-06 16:55:04,2019-03-06 16:55:10,5.776s,PASSED
delay(delay_time),Chrome 72.0.3626.121,,2019-03-06 16:55:10,2019-03-06 16:55:14,4.008s,PASSED
"click(findTestObject(""Robot/group_submenu""))",Chrome 72.0.3626.121,,2019-03-06 16:55:14,2019-03-06 16:55:45,31.777s,FAILED
Start listener action : sampleAfterTestCase,Chrome 72.0.3626.121,,2019-03-06 16:55:45,2019-03-06 16:55:46,0.290s,PASSED
,,,,,,
Test Cases/Verification/Logout,Chrome 72.0.3626.121,,2019-03-06 16:55:46,2019-03-06 16:56:32,45.799s,FAILED
Start listener action : sampleBeforeTestCase,Chrome 72.0.3626.121,,2019-03-06 16:55:46,2019-03-06 16:55:53,7.303s,PASSED
"callTestCase(findTestCase(""Verification/Login with valid credentials""), [:], STOP_ON_FAILURE)",Chrome 72.0.3626.121,,2019-03-06 16:55:53,2019-03-06 16:55:55,1.288s,PASSED
"waitForElementClickable(findTestObject(""Verification/profile_image""), global_waitingtime)",Chrome 72.0.3626.121,,2019-03-06 16:55:55,2019-03-06 16:56:00,5.222s,PASSED
"click(findTestObject(""Verification/profile_image""))",Chrome 72.0.3626.121,,2019-03-06 16:56:00,2019-03-06 16:56:31,31.383s,FAILED
Start listener action : sampleAfterTestCase,Chrome 72.0.3626.121,,2019-03-06 16:56:31,2019-03-06 16:56:32,0.217s,PASSED
,,,,,,
Test Cases/Verification/Login with valid credentials,Chrome 72.0.3626.121,,2019-03-06 16:56:32,2019-03-06 16:56:40,8.532s,PASSED
Start listener action : sampleBeforeTestCase,Chrome 72.0.3626.121,,2019-03-06 16:56:32,2019-03-06 16:56:39,7.294s,PASSED
"setText(findTestObject(""Verification/txt_loginid""), findTestData(""Login"").getValue(1, 1))",Chrome 72.0.3626.121,,2019-03-06 16:56:39,2019-03-06 16:56:39,0.448s,PASSED
"setText(findTestObject(""Verification/txt_password""), findTestData(""Login"").getValue(2, 1))",Chrome 72.0.3626.121,,2019-03-06 16:56:39,2019-03-06 16:56:40,0.335s,PASSED
"click(findTestObject(""Verification/btn_login""))",Chrome 72.0.3626.121,,2019-03-06 16:56:40,2019-03-06 16:56:40,0.197s,PASSED
"verifyElementPresent(findTestObject(""Verification/lbl_homepage""), global_waitingtime)",Chrome 72.0.3626.121,,2019-03-06 16:56:40,2019-03-06 16:56:40,0.050s,PASSED
Start listener action : sampleAfterTestCase,Chrome 72.0.3626.121,,2019-03-06 16:56:40,2019-03-06 16:56:40,0.199s,PASSED
,,,,,,
Test Cases/Verification/Login with invalid ID and Password,Chrome 72.0.3626.121,,2019-03-06 16:56:40,2019-03-06 16:56:49,8.538s,PASSED
Start listener action : sampleBeforeTestCase,Chrome 72.0.3626.121,,2019-03-06 16:56:40,2019-03-06 16:56:48,7.428s,PASSED
"setText(findTestObject(""Verification/txt_loginid""), findTestData(""Login"").getValue(1, 2))",Chrome 72.0.3626.121,,2019-03-06 16:56:48,2019-03-06 16:56:48,0.348s,PASSED
"setText(findTestObject(""Verification/txt_password""), findTestData(""Login"").getValue(2, 2))",Chrome 72.0.3626.121,,2019-03-06 16:56:48,2019-03-06 16:56:48,0.231s,PASSED
"click(findTestObject(""Verification/btn_login""))",Chrome 72.0.3626.121,,2019-03-06 16:56:48,2019-03-06 16:56:48,0.151s,PASSED
"verifyElementPresent(findTestObject(""Verification/popup_login_fail""), global_waitingtime)",Chrome 72.0.3626.121,,2019-03-06 16:56:48,2019-03-06 16:56:49,0.087s,PASSED
Start listener action : sampleAfterTestCase,Chrome 72.0.3626.121,,2019-03-06 16:56:49,2019-03-06 16:56:49,0.126s,PASSED
,,,,,,
Test Cases/Menu/Notifications Click,Chrome 72.0.3626.121,,2019-03-06 16:56:49,2019-03-06 16:57:06,17.715s,PASSED
Start listener action : sampleBeforeTestCase,Chrome 72.0.3626.121,,2019-03-06 16:56:49,2019-03-06 16:56:56,7.447s,PASSED
"callTestCase(findTestCase(""Verification/Login with valid credentials""), [:], STOP_ON_FAILURE)",Chrome 72.0.3626.121,,2019-03-06 16:56:56,2019-03-06 16:56:58,1.556s,PASSED
delay(delay_time),Chrome 72.0.3626.121,,2019-03-06 16:56:58,2019-03-06 16:57:02,4.008s,PASSED
"click(findTestObject(""Menu/noti_button""))",Chrome 72.0.3626.121,,2019-03-06 16:57:02,2019-03-06 16:57:02,0.141s,PASSED
delay(delay_time),Chrome 72.0.3626.121,,2019-03-06 16:57:02,2019-03-06 16:57:06,4.004s,PASSED
"click(findTestObject(""Menu/noti_all_view""))",Chrome 72.0.3626.121,,2019-03-06 16:57:06,2019-03-06 16:57:06,0.112s,PASSED
"verifyElementPresent(findTestObject(""Menu/noti_header""), global_waitingtime)",Chrome 72.0.3626.121,,2019-03-06 16:57:06,2019-03-06 16:57:06,0.031s,PASSED
Start listener action : sampleAfterTestCase,Chrome 72.0.3626.121,,2019-03-06 16:57:06,2019-03-06 16:57:06,0.197s,PASSED
